^C:\USERS\TONI\DOCUMENTS\OOP-KICK-START\OOPINTRO\OOPINTRO.CPP
C:\USERS\TONI\DOCUMENTS\OOP-KICK-START\OOPINTRO\DEBUG\VC142.PDB
C:\USERS\TONI\DOCUMENTS\OOP-KICK-START\OOPINTRO\DEBUG\VC142.IDB
C:\USERS\TONI\DOCUMENTS\OOP-KICK-START\OOPINTRO\DEBUG\OOPINTRO.OBJ
